﻿object={
	name="bridge 01"
	clamp_to_water_level=no
	render_under_water=yes
	generated_content=no
	layer="temp_layer"
	pdxmesh="bridge_01_mesh"
	count=53
	transform="2599.950439 0.478271 3670.013672 0.000000 0.247966 0.000000 0.968769 1.088550 1.088550 1.088550
3259.207275 1.970215 2564.942871 0.000000 -0.681527 0.000000 0.731793 1.154956 1.154956 1.154956
3206.572754 2.002197 2572.051514 0.000000 0.274301 0.000000 0.961644 1.000000 1.000000 1.000000
3239.701904 1.372803 2740.768555 0.000000 -0.524575 0.000000 0.851364 1.000000 1.000000 1.000000
3161.896484 2.092773 2460.697998 0.000000 -0.353717 0.000000 0.935353 1.192454 1.192454 1.192454
3395.539307 2.289551 2447.179932 0.000000 0.428894 0.000000 0.903355 1.242017 1.242017 1.242017
3052.830078 1.873291 2449.184082 0.000000 -0.304620 0.000000 0.952474 1.119897 1.119897 1.119897
3248.039307 1.513916 3001.883545 0.000000 -0.816565 0.000000 -0.577253 1.118066 1.118066 1.118066
3235.523193 1.306641 3036.850098 0.000000 0.347515 0.000000 0.937675 1.000000 1.000000 1.000000
3623.519775 0.654297 3170.242920 0.000000 0.367862 0.000000 0.929880 1.000000 1.000000 1.000000
3501.937744 0.511719 3043.615723 0.000000 -0.419636 0.000000 0.907692 1.000000 1.000000 1.000000
3297.926758 0.920410 3017.543945 0.000000 0.161972 0.000000 0.986795 1.000000 1.000000 1.000000
3383.166260 0.490723 2862.749023 0.000000 0.694065 0.000000 0.719912 1.000000 1.000000 1.000000
820.831055 2.765503 537.380493 0.000000 0.922063 0.000000 0.387039 1.000000 1.000000 1.000000
926.682007 2.467651 647.567627 0.000000 0.035279 0.000000 0.999377 1.000000 1.000000 1.000000
1090.883057 2.471741 636.384094 0.000000 0.323049 0.000000 0.946382 1.000000 1.000000 1.000000
1281.182861 0.633820 455.339600 0.000000 0.006287 0.000000 0.999980 1.000000 1.000000 1.000000
1391.802246 1.837311 379.500336 0.000000 0.385643 0.000000 0.922648 1.000000 1.000000 1.000000
1490.171143 2.751358 260.415131 0.000000 -0.996579 0.000000 -0.082644 1.000000 1.000000 1.000000
1533.750000 1.937057 115.710915 0.000000 -0.764808 0.000000 0.644259 1.000000 1.000000 1.000000
1530.273438 1.300034 45.237511 0.000000 0.614613 0.000000 0.788828 1.000000 1.000000 1.000000
3463.608887 1.192017 1501.964600 0.000000 -0.848214 0.000000 0.529654 1.158841 1.158841 1.158841
3424.626953 1.033569 1524.405273 0.000000 0.442162 0.000000 0.896935 1.000000 1.000000 1.000000
3524.212402 1.036255 1431.536987 0.000000 0.000000 0.000000 1.000000 1.000000 1.000000 1.000000
5976.100586 0.710632 982.019958 0.000000 -0.491804 0.000000 0.870706 1.000000 1.000000 1.000000
6013.286133 0.576355 993.051086 0.000000 0.516576 0.000000 0.856242 1.000000 1.000000 1.000000
5968.901367 0.867310 1096.702393 0.000000 0.677160 0.000000 0.735836 1.000000 1.000000 1.000000
5937.916016 0.797974 1212.167114 0.000000 -0.185564 0.000000 0.982632 1.000000 1.000000 1.000000
5979.626465 0.490967 1253.046875 0.000000 0.000000 0.000000 1.000000 1.000000 1.000000 1.000000
5476.494629 1.568970 1097.456543 0.000000 -0.438545 0.000000 0.898709 1.000000 1.000000 1.000000
5590.829590 1.409790 1276.601074 0.000000 -0.607535 0.000000 0.794293 1.000000 1.000000 1.000000
5607.817383 0.773315 1321.525146 0.000000 -0.031001 0.000000 0.999519 1.000000 1.000000 1.000000
5582.435547 1.676025 1311.450562 0.000000 -0.707281 0.000000 0.706933 1.000000 1.000000 1.000000
5676.745605 0.498047 1296.061890 0.000000 0.086318 0.000000 0.996268 1.000000 1.000000 1.000000
5646.924805 0.465088 1351.154663 0.000000 0.513017 0.000000 0.858378 1.000000 1.000000 1.000000
5552.473633 0.579834 1348.894897 0.000000 0.596130 0.000000 0.802888 1.000000 1.000000 1.000000
5415.053223 0.936401 1372.482788 0.000000 0.308484 0.000000 0.951230 1.000000 1.000000 1.000000
5290.904785 0.600708 1333.830200 0.000000 0.016967 0.000000 0.999856 1.000000 1.000000 1.000000
4568.521484 0.765747 1372.736572 0.000000 -0.373871 0.000000 0.927481 1.000000 1.000000 1.000000
4545.923828 1.159668 1207.504517 0.000000 -0.560788 0.000000 0.827960 1.000000 1.000000 1.000000
4636.471191 1.617188 1450.236206 0.000000 -0.362066 0.000000 0.932152 1.000000 1.000000 1.000000
4713.086426 0.765625 1496.105957 0.000000 -0.289497 0.000000 0.957179 1.000000 1.000000 1.000000
4642.469727 1.508057 1546.074707 0.000000 0.605789 0.000000 0.795626 1.000000 1.000000 1.000000
4786.248047 1.030273 1554.336304 0.000000 0.000000 0.000000 1.000000 1.000000 1.000000 1.000000
1065.442017 0.000000 2273.024658 0.000000 0.000000 0.000000 1.000000 0.536816 0.536816 0.536816
0.000000 0.000000 0.000000 0.000000 0.000000 0.000000 1.000000 1.000000 1.000000 1.000000
0.000000 0.000000 0.000000 0.000000 0.000000 0.000000 1.000000 1.000000 1.000000 1.000000
0.000000 0.000000 0.000000 0.000000 0.000000 0.000000 1.000000 1.000000 1.000000 1.000000
0.000000 0.000000 0.000000 0.000000 0.000000 0.000000 1.000000 1.000000 1.000000 1.000000
0.000000 0.000000 0.000000 0.000000 0.000000 0.000000 1.000000 1.000000 1.000000 1.000000
0.000000 0.000000 0.000000 0.000000 0.000000 0.000000 1.000000 1.000000 1.000000 1.000000
0.000000 0.000000 0.000000 0.000000 0.000000 0.000000 1.000000 1.000000 1.000000 1.000000
2232.604248 0.000000 2829.466309 0.000000 0.000000 0.000000 1.000000 0.603906 0.603906 0.603906
"}
