﻿object={
	name="lakes"
	clamp_to_water_level=yes
	render_under_water=no
	generated_content=no
	layer="lake_layer"
	pdxmesh="lake_mesh"
	count=12
	transform="317.932983 0.895508 3836.497070 0.000000 0.994212 0.000000 0.107439 11.618054 11.618054 11.618054
5232.033203 1.497070 2745.910645 0.000000 0.000000 0.000000 1.000000 14.421523 14.421523 14.421523
3306.611816 -0.276123 440.064423 0.000000 0.174036 0.000000 0.984739 13.830501 13.830501 13.830501
3695.491699 0.915649 1682.652466 0.000000 -0.258181 0.000000 0.966097 14.837814 14.837814 14.837814
3905.208740 0.090820 3025.111572 0.000000 -0.500838 0.000000 0.865541 21.570053 21.570053 21.570053
3903.540039 2.270020 3079.509521 0.000000 0.512048 0.000000 0.858957 7.585004 7.585004 7.585004
4924.850098 0.000000 1266.810791 0.000000 0.000000 0.000000 1.000000 10.629927 10.629927 10.629927
4442.176270 0.933105 2642.348145 0.000000 0.000000 0.000000 1.000000 12.844775 12.844775 12.844775
4763.302246 1.399902 2737.183594 0.000000 0.000000 0.000000 1.000000 15.450583 15.450583 15.450583
2305.093750 2.133057 2347.362549 0.000000 0.000000 0.000000 1.000000 42.072578 42.072578 42.072578
2157.214844 1.961914 2764.880859 0.000000 0.444487 0.000000 0.895785 151.158508 151.158508 151.158508
1792.195923 0.589600 3876.700928 0.000000 0.000000 0.000000 1.000000 67.231117 67.231117 67.231117
"}
